Clase 5 - Gramática de los gráficos en R
…
Los atributos estéticos (aesthetics en inglés) que
especifica las relaciones entre variables y los atributos estéticos con
los cuales se representar sus valores (como el color, el tamaño, la
transparencia, la forma la línea, entre otros).

Los geoms que especifican los elementos geométricos, es decir, la
geométria del gráfico (puntos, líneas y/o círculos).

El data set con el que practicaremos contiene la temperatura promedio
para cada día del 2019 en la ciudad de Beirut, Líbano:

temps_beirut

## # A tibble: 365 × 7
##    region      country city   month day_of_year  year temperature
##    <chr>       <chr>   <chr>  <ord>       <dbl> <dbl>       <dbl>
##  1 Middle East Lebanon Beirut ene             1  2019        15.7
##  2 Middle East Lebanon Beirut ene             2  2019        14.6
##  3 Middle East Lebanon Beirut ene             3  2019        14.2
##  4 Middle East Lebanon Beirut ene             4  2019        16.2
##  5 Middle East Lebanon Beirut ene             5  2019        14.9
##  6 Middle East Lebanon Beirut ene             6  2019        12.9
##  7 Middle East Lebanon Beirut ene             7  2019        11.7
##  8 Middle East Lebanon Beirut ene             8  2019        12  
##  9 Middle East Lebanon Beirut ene             9  2019        12.1
## 10 Middle East Lebanon Beirut ene            10  2019        13  
## # ℹ 355 more rows
…
Incorporando colores a las visualizaciones

Ahora pasamos a trabajar con el dataset temps, que es
similar a temps_beirut pero contiene registros para tres
ubicaciones adicionales:

temps

## # A tibble: 1,460 × 7
##    region                      country city  month day_of_year  year temperature
##    <chr>                       <chr>   <chr> <ord>       <dbl> <dbl>       <dbl>
##  1 Middle East                 Lebanon Beir… ene             1  2019        15.7
##  2 Europe                      Ukraine Kiev  ene             1  2019        -0.1
##  3 South/Central America & Ca… Hondur… Tegu… ene             1  2019        19.3
##  4 North America               US      Miam… ene             1  2019        24.3
##  5 Middle East                 Lebanon Beir… ene             2  2019        14.6
##  6 Europe                      Ukraine Kiev  ene             2  2019         0.3
##  7 South/Central America & Ca… Hondur… Tegu… ene             2  2019        20.6
##  8 North America               US      Miam… ene             2  2019        24.4
##  9 Middle East                 Lebanon Beir… ene             3  2019        14.2
## 10 Europe                      Ukraine Kiev  ene             3  2019        -0.8
## # ℹ 1,450 more rows
…
