EPH
…
Datos

data_1t <- get_microdata(year = 2024, trimester = 1, type = 'individual')
data_2t <- get_microdata(year = 2024, trimester = 2, type = 'individual')
data_3t <- get_microdata(year = 2024, trimester = 3, type = 'individual')

data <- rbind(data_1t, data_2t, data_3t)

data <- organize_labels(data, type = "individual")

data

# A tibble: 140,765 × 177
   CODUSU   ANO4  TRIMESTRE NRO_HOGAR COMPONENTE H15   REGION MAS_500 AGLOMERADO
   <labell> <lab> <labelle> <labelle> <labelled> <lab> <labe> <label> <labelled>
 1 TQRMNOP… 2024  1         1         3          1     42     S       10        
 2 TQRMNOP… 2024  1         1         4          1     42     S       10        
 3 TQRMNOP… 2024  1         1         5          0     42     S       10        
 4 TQRMNOP… 2024  1         1         1          1     42     S       10        
 5 TQRMNOP… 2024  1         1         2          1     42     S       10        
 6 TQRMNOP… 2024  1         1         3          1     42     S       10        
 7 TQRMNOP… 2024  1         1         4          1     42     S       10        
 8 TQRMNOR… 2024  1         1         1          1     41     N        7        
 9 TQRMNOR… 2024  1         1         2          1     41     N        7        
10 TQRMNOR… 2024  1         1         3          1     41     N        7        
# ℹ 140,755 more rows
# ℹ 168 more variables: PONDERA <labelled>, CH03 <labelled>, CH04 <labelled>,
#   CH05 <labelled>, CH06 <labelled>, CH07 <labelled>, CH08 <labelled>,
#   CH09 <labelled>, CH10 <labelled>, CH11 <labelled>, CH12 <labelled>,
#   CH13 <labelled>, CH14 <labelled>, CH15 <labelled>, CH15_COD <labelled>,
#   CH16 <labelled>, CH16_COD <labelled>, NIVEL_ED <labelled>,
#   ESTADO <labelled>, CAT_OCUP <labelled>, CAT_INAC <labelled>, …
…
Ejercicio 2

Mostrá en un gráfico la distribución de probabilidad de la variable
ingresos de asalariados según región. De nuevo, tené en cuenta con
filtrar aquellos casos que no corresponden (los no-asalariados).

Los datos necesarios son: - P21 → Ingreso individual de la ocupación
principal. - ESTADO == “1” para ocupados - CAT_OCUP == “3” para
asalariados - REGION

data_ej2 <- data[,c("P21", "ESTADO", "CAT_OCUP", "REGION")]
data_ej2 <- filter(data_ej2, ESTADO == "1" & CAT_OCUP == "3")
data_ej2

# A tibble: 45,752 × 4
   P21        ESTADO     CAT_OCUP   REGION    
   <labelled> <labelled> <labelled> <labelled>
 1     -9     1          3          42        
 2 250000     1          3          42        
 3 200000     1          3          42        
 4 200000     1          3          42        
 5 200000     1          3          42        
 6     -9     1          3          41        
 7     -9     1          3          41        
 8 200000     1          3          41        
 9     -9     1          3          41        
10 500000     1          3          41        
# ℹ 45,742 more rows

Oh no! Hay salarios -9… Qué significa?

filter(data, P21 == "-9")

# A tibble: 11,059 × 177
   CODUSU   ANO4  TRIMESTRE NRO_HOGAR COMPONENTE H15   REGION MAS_500 AGLOMERADO
   <labell> <lab> <labelle> <labelle> <labelled> <lab> <labe> <label> <labelled>
 1 TQRMNOP… 2024  1         1         3          1     42     S       10        
 2 TQRMNOR… 2024  1         1         2          1     41     N        7        
 3 TQRMNOR… 2024  1         1         3          1     41     N        7        
 4 TQRMNOS… 2024  1         1         1          1     41     N        7        
 5 TQRMNOS… 2024  1         1         3          1     41     N        7        
 6 TQRMNOR… 2024  1         1         1          1     43     S        5        
 7 TQRMNOR… 2024  1         1         2          1     43     S        5        
 8 TQRMNOS… 2024  1         1         2          1     41     N        7        
 9 TQRMNOS… 2024  1         2         2          1     41     N        7        
10 TQRMNOS… 2024  1         2         3          1     41     N        7        
# ℹ 11,049 more rows
# ℹ 168 more variables: PONDERA <labelled>, CH03 <labelled>, CH04 <labelled>,
#   CH05 <labelled>, CH06 <labelled>, CH07 <labelled>, CH08 <labelled>,
#   CH09 <labelled>, CH10 <labelled>, CH11 <labelled>, CH12 <labelled>,
#   CH13 <labelled>, CH14 <labelled>, CH15 <labelled>, CH15_COD <labelled>,
#   CH16 <labelled>, CH16_COD <labelled>, NIVEL_ED <labelled>,
#   ESTADO <labelled>, CAT_OCUP <labelled>, CAT_INAC <labelled>, …

No tengo idea, fuí a revisar si había algo sobre eso y no encontré
nada… Decido filtrarlo y listo.

data_ej2 <- data[,c("P21", "ESTADO", "CAT_OCUP", "REGION")]
data_ej2 <- filter(data_ej2, ESTADO == "1" & CAT_OCUP == "3" & P21 != "-9")
data_ej2

# A tibble: 38,448 × 4
   P21        ESTADO     CAT_OCUP   REGION    
   <labelled> <labelled> <labelled> <labelled>
 1 250000     1          3          42        
 2 200000     1          3          42        
 3 200000     1          3          42        
 4 200000     1          3          42        
 5 200000     1          3          41        
 6 500000     1          3          41        
 7 350000     1          3          40        
 8 100000     1          3          40        
 9 180000     1          3          40        
10 140000     1          3          40        
# ℹ 38,438 more rows
…
Ejercicio 3

Escapando a las barras: utilizá un boxplot para describir la relación
entre el nivel de ingresos de los asalariados por región y sexo.
Describí estas relaciones.

data_ej3 <- data[,c("P21", "ESTADO", "CAT_OCUP", "REGION", "CH04")]
data_ej3 <- filter(data_ej3, ESTADO == "1" & CAT_OCUP == "3" & P21 != "-9")
data_ej3

# A tibble: 38,448 × 5
   P21        ESTADO     CAT_OCUP   REGION     CH04      
   <labelled> <labelled> <labelled> <labelled> <labelled>
 1 250000     1          3          42         1         
 2 200000     1          3          42         2         
 3 200000     1          3          42         2         
 4 200000     1          3          42         1         
 5 200000     1          3          41         1         
 6 500000     1          3          41         2         
 7 350000     1          3          40         1         
 8 100000     1          3          40         1         
 9 180000     1          3          40         2         
10 140000     1          3          40         1         
# ℹ 38,438 more rows
…
